Lab 5/simulation/qsim/Lab5.msim.vcd
$comment
	File created using the following command:
		vcd file Lab5.msim.vcd -direction
$end
$date
	Mon Sep 30 13:51:11 2024
$end
$version
	ModelSim Version 10.5b
$end
$timescale
	1ps
$end

$scope module door_state_machine_vhd_vec_tst $end
$var wire 1 ! ajar $end
$var wire 1 " clock $end
$var wire 1 # inner $end
$var wire 1 $ outer $end
$var wire 1 % resetn $end

$scope module i1 $end
$var wire 1 & gnd $end
$var wire 1 ' vcc $end
$var wire 1 ( unknown $end
$var wire 1 ) devoe $end
$var wire 1 * devclrn $end
$var wire 1 + devpor $end
$var wire 1 , ww_devoe $end
$var wire 1 - ww_devclrn $end
$var wire 1 . ww_devpor $end
$var wire 1 / ww_clock $end
$var wire 1 0 ww_resetn $end
$var wire 1 1 ww_inner $end
$var wire 1 2 ww_outer $end
$var wire 1 3 ww_ajar $end
$var wire 1 4 \ajar~output_o\ $end
$var wire 1 5 \clock~input_o\ $end
$var wire 1 6 \inner~input_o\ $end
$var wire 1 7 \outer~input_o\ $end
$var wire 1 8 \state.undesireable_once~0_combout\ $end
$var wire 1 9 \resetn~input_o\ $end
$var wire 1 : \state.undesireable_once~q\ $end
$var wire 1 ; \Selector0~0_combout\ $end
$var wire 1 < \state.nothing_bad~q\ $end
$var wire 1 = \Selector2~0_combout\ $end
$var wire 1 > \state.undesireable_twice~q\ $end
$var wire 1 ? \ALT_INV_outer~input_o\ $end
$var wire 1 @ \ALT_INV_inner~input_o\ $end
$var wire 1 A \ALT_INV_state.undesireable_once~q\ $end
$var wire 1 B \ALT_INV_state.nothing_bad~q\ $end
$upscope $end
$upscope $end
$enddefinitions $end
#0
$dumpvars
0!
0"
0#
0$
1%
0&
1'
x(
1)
1*
1+
1,
1-
1.
0/
10
01
02
03
04
05
06
07
18
19
0:
1;
0<
0=
0>
1?
1@
1A
1B
$end
#10000
0%
00
09
#50000
1"
1/
15
#60000
1%
10
19
#100000
0"
0/
05
#130000
1$
12
17
0?
0;
1=
#150000
1"
1/
15
1:
1>
0A
14
13
1!
#170000
0$
02
07
1?
1;
0=
#200000
0"
0/
05
#230000
1$
12
17
0?
0;
1=
#250000
1"
1/
15
#270000
0$
02
07
1?
1;
0=
#300000
0"
0/
05
#350000
1"
1/
15
1<
0>
0B
04
03
0!
#400000
0"
0/
05
#440000
1$
12
17
0?
08
0;
#450000
1"
1/
15
0:
0<
1B
1A
18
1=
#490000
0$
02
07
1?
1;
0=
#500000
0"
0/
05
#550000
1"
1/
15
1:
1<
0B
0A
#600000
0"
0/
05
#650000
1"
1/
15
#700000
0"
0/
05
#740000
1$
12
17
0?
08
0;
#750000
1"
1/
15
0:
0<
1B
1A
18
1=
#790000
0$
02
07
1?
1;
0=
#800000
0"
0/
05
#840000
1$
12
17
0?
0;
1=
#850000
1"
1/
15
1:
1>
0A
14
13
1!
#890000
0$
02
07
1?
1;
0=
#900000
0"
0/
05
#920000
1#
11
16
0@
#950000
1"
1/
15
1<
0>
0B
04
03
0!
#980000
0#
01
06
1@
