Lab 3/simulation/qsim/RPS_VHDL.msim.vcd
$comment
	File created using the following command:
		vcd file RPS_VHDL.msim.vcd -direction
$end
$date
	Thu Sep 12 17:33:33 2024
$end
$version
	ModelSim Version 10.5b
$end
$timescale
	1ps
$end

$scope module rps_vhdl_vhd_vec_tst $end
$var wire 1 ! E1 $end
$var wire 1 " E2 $end
$var wire 1 # P1 $end
$var wire 1 $ P2 $end
$var wire 1 % R1 $end
$var wire 1 & R2 $end
$var wire 1 ' S1 $end
$var wire 1 ( S2 $end
$var wire 1 ) W1 $end
$var wire 1 * W2 $end

$scope module i1 $end
$var wire 1 + gnd $end
$var wire 1 , vcc $end
$var wire 1 - unknown $end
$var wire 1 . devoe $end
$var wire 1 / devclrn $end
$var wire 1 0 devpor $end
$var wire 1 1 ww_devoe $end
$var wire 1 2 ww_devclrn $end
$var wire 1 3 ww_devpor $end
$var wire 1 4 ww_R1 $end
$var wire 1 5 ww_P1 $end
$var wire 1 6 ww_S1 $end
$var wire 1 7 ww_R2 $end
$var wire 1 8 ww_P2 $end
$var wire 1 9 ww_S2 $end
$var wire 1 : ww_W1 $end
$var wire 1 ; ww_W2 $end
$var wire 1 < ww_E1 $end
$var wire 1 = ww_E2 $end
$var wire 1 > \W1~output_o\ $end
$var wire 1 ? \W2~output_o\ $end
$var wire 1 @ \E1~output_o\ $end
$var wire 1 A \E2~output_o\ $end
$var wire 1 B \P2~input_o\ $end
$var wire 1 C \S2~input_o\ $end
$var wire 1 D \R1~input_o\ $end
$var wire 1 E \R2~input_o\ $end
$var wire 1 F \P1~input_o\ $end
$var wire 1 G \S1~input_o\ $end
$var wire 1 H \Mux0~0_combout\ $end
$var wire 1 I \W2~0_combout\ $end
$var wire 1 J \E1~0_combout\ $end
$var wire 1 K \E2~0_combout\ $end
$var wire 1 L \ALT_INV_S1~input_o\ $end
$var wire 1 M \ALT_INV_P1~input_o\ $end
$var wire 1 N \ALT_INV_R2~input_o\ $end
$var wire 1 O \ALT_INV_R1~input_o\ $end
$var wire 1 P \ALT_INV_S2~input_o\ $end
$var wire 1 Q \ALT_INV_P2~input_o\ $end
$upscope $end
$upscope $end
$enddefinitions $end
#0
$dumpvars
0!
0"
0#
0$
0%
0&
0'
0(
0)
0*
0+
1,
x-
1.
1/
10
11
12
13
04
05
06
07
08
09
0:
0;
0<
0=
0>
0?
0@
0A
0B
0C
0D
0E
0F
0G
0H
0I
0J
0K
1L
1M
1N
1O
1P
1Q
$end
#25000
1(
19
1C
0P
#50000
0(
1$
09
18
1B
0C
1P
0Q
#75000
1(
19
1C
0P
1K
1A
1=
1"
#100000
0(
0$
1&
09
08
17
1E
0B
0C
1P
1Q
0N
0K
0A
0=
0"
#125000
1(
19
1C
0P
1K
1A
1=
1"
#150000
0(
1$
09
18
1B
0C
1P
0Q
#175000
1(
19
1C
0P
#200000
0(
0$
0&
1'
09
08
07
16
1G
0E
0B
0C
1P
1Q
1N
0L
0K
0A
0=
0"
#225000
1(
19
1C
0P
#250000
0(
1$
09
18
1B
0C
1P
0Q
1H
1>
1:
1)
#275000
1(
19
1C
0P
0H
1K
1A
0>
1=
0:
1"
0)
#300000
0(
0$
1&
09
08
17
1E
0B
0C
1P
1Q
0N
1I
0K
0A
1?
0=
1;
0"
1*
#325000
1(
19
1C
0P
0I
1K
1A
0?
1=
0;
1"
0*
#350000
0(
1$
09
18
1B
0C
1P
0Q
#375000
1(
19
1C
0P
#400000
0(
0$
0&
0'
1#
09
08
07
06
15
1F
0G
0E
0B
0C
1P
1Q
1N
1L
0M
0K
0A
0=
0"
#425000
1(
19
1C
0P
1I
1?
1;
1*
#450000
0(
1$
09
18
1B
0C
1P
0Q
0I
0?
0;
0*
#475000
1(
19
1C
0P
1K
1A
1=
1"
#500000
0(
0$
1&
09
08
17
1E
0B
0C
1P
1Q
0N
1H
0K
0A
1>
0=
1:
0"
1)
#525000
1(
19
1C
0P
0H
1K
1A
0>
1=
0:
1"
0)
#550000
0(
1$
09
18
1B
0C
1P
0Q
#575000
1(
19
1C
0P
#600000
0(
0$
0&
1'
09
08
07
16
1G
0E
0B
0C
1P
1Q
1N
0L
1J
0K
0A
1@
0=
1<
0"
1!
#625000
1(
19
1C
0P
#650000
0(
1$
09
18
1B
0C
1P
0Q
#675000
1(
19
1C
0P
1K
1A
1=
1"
#700000
0(
0$
1&
09
08
17
1E
0B
0C
1P
1Q
0N
0K
0A
0=
0"
#725000
1(
19
1C
0P
1K
1A
1=
1"
#750000
0(
1$
09
18
1B
0C
1P
0Q
#775000
1(
19
1C
0P
#800000
0(
0$
0&
0'
0#
1%
09
08
07
06
05
14
1D
0F
0G
0E
0B
0C
1P
1Q
1N
1L
1M
0O
0J
0K
0A
0@
0=
0<
0"
0!
#825000
1(
19
1C
0P
1H
1>
1:
1)
#850000
0(
1$
09
18
1B
0C
1P
0Q
0H
1I
1?
0>
1;
0:
1*
0)
#875000
1(
19
1C
0P
0I
1K
1A
0?
1=
0;
1"
0*
#900000
0(
0$
1&
09
08
17
1E
0B
0C
1P
1Q
0N
0K
0A
0=
0"
#925000
1(
19
1C
0P
1K
1A
1=
1"
#950000
0(
1$
09
18
1B
0C
1P
0Q
#975000
1(
19
1C
0P
#1000000
0(
0$
0&
1'
09
08
07
16
1G
0E
0B
0C
1P
1Q
1N
0L
1J
0K
0A
1@
0=
1<
0"
1!
#1025000
1(
19
1C
0P
#1050000
0(
1$
09
18
1B
0C
1P
0Q
#1075000
1(
19
1C
0P
1K
1A
1=
1"
#1100000
0(
0$
1&
09
08
17
1E
0B
0C
1P
1Q
0N
0K
0A
0=
0"
#1125000
1(
19
1C
0P
1K
1A
1=
1"
#1150000
0(
1$
09
18
1B
0C
1P
0Q
#1175000
1(
19
1C
0P
#1200000
0(
0$
0&
0'
1#
09
08
07
06
15
1F
0G
0E
0B
0C
1P
1Q
1N
1L
0M
0K
0A
0=
0"
#1225000
1(
19
1C
0P
#1250000
0(
1$
09
18
1B
0C
1P
0Q
#1275000
1(
19
1C
0P
1K
1A
1=
1"
#1300000
0(
0$
1&
09
08
17
1E
0B
0C
1P
1Q
0N
0K
0A
0=
0"
#1325000
1(
19
1C
0P
1K
1A
1=
1"
#1350000
0(
1$
09
18
1B
0C
1P
0Q
#1375000
1(
19
1C
0P
#1400000
0(
0$
0&
1'
09
08
07
16
1G
0E
0B
0C
1P
1Q
1N
0L
0K
0A
0=
0"
#1425000
1(
19
1C
0P
#1450000
0(
1$
09
18
1B
0C
1P
0Q
#1475000
1(
19
1C
0P
1K
1A
1=
1"
#1500000
0(
0$
1&
09
08
17
1E
0B
0C
1P
1Q
0N
0K
0A
0=
0"
#1525000
1(
19
1C
0P
1K
1A
1=
1"
#1550000
0(
1$
09
18
1B
0C
1P
0Q
#1575000
1(
19
1C
0P
